(kicad_symbol_lib (version 20211014) (generator kicad_symbol_editor)
  (symbol "WD37C65-PLCC" (pin_names (offset 0.002)) (in_bom yes) (on_board yes)
    (property "Reference" "U" (id 0) (at -2.54 -1.27 0)
      (effects (font (size 1.27 1.27)))
    )
    (property "Value" "WD37C65-PLCC" (id 1) (at -2.54 1.27 0)
      (effects (font (size 1.27 1.27)))
    )
    (property "Footprint" "Package_LCC:PLCC-44_THT-Socket" (id 2) (at 0 15.24 0)
      (effects (font (size 1.27 1.27)) hide)
    )
    (property "Datasheet" "" (id 3) (at -2.54 22.86 0)
      (effects (font (size 1.27 1.27)) hide)
    )
    (symbol "WD37C65-PLCC_0_0"
      (pin input inverted (at 0 25.4 270) (length 5.08)
        (name "~{RD}" (effects (font (size 1.27 1.27))))
        (number "1" (effects (font (size 1.27 1.27))))
      )
      (pin bidirectional line (at -25.4 5.08 0) (length 5.08)
        (name "DB3" (effects (font (size 1.27 1.27))))
        (number "10" (effects (font (size 1.27 1.27))))
      )
      (pin bidirectional line (at -25.4 2.54 0) (length 5.08)
        (name "DB4" (effects (font (size 1.27 1.27))))
        (number "11" (effects (font (size 1.27 1.27))))
      )
      (pin bidirectional line (at -25.4 0 0) (length 5.08)
        (name "DB5" (effects (font (size 1.27 1.27))))
        (number "12" (effects (font (size 1.27 1.27))))
      )
      (pin bidirectional line (at -25.4 -2.54 0) (length 5.08)
        (name "DB6" (effects (font (size 1.27 1.27))))
        (number "13" (effects (font (size 1.27 1.27))))
      )
      (pin bidirectional line (at -25.4 -5.08 0) (length 5.08)
        (name "DB7" (effects (font (size 1.27 1.27))))
        (number "14" (effects (font (size 1.27 1.27))))
      )
      (pin output line (at -25.4 -7.62 0) (length 5.08)
        (name "DMA" (effects (font (size 1.27 1.27))))
        (number "15" (effects (font (size 1.27 1.27))))
      )
      (pin output line (at -25.4 -10.16 0) (length 5.08)
        (name "IRQ" (effects (font (size 1.27 1.27))))
        (number "16" (effects (font (size 1.27 1.27))))
      )
      (pin input inverted (at -25.4 -12.7 0) (length 5.08)
        (name "~{DCHGEN}" (effects (font (size 1.27 1.27))))
        (number "17" (effects (font (size 1.27 1.27))))
      )
      (pin input inverted (at -12.7 -25.4 90) (length 5.08)
        (name "~{LDOR}" (effects (font (size 1.27 1.27))))
        (number "18" (effects (font (size 1.27 1.27))))
      )
      (pin input inverted (at -10.16 -25.4 90) (length 5.08)
        (name "~{LDCR}" (effects (font (size 1.27 1.27))))
        (number "19" (effects (font (size 1.27 1.27))))
      )
      (pin input inverted (at -2.54 25.4 270) (length 5.08)
        (name "~{WR}" (effects (font (size 1.27 1.27))))
        (number "2" (effects (font (size 1.27 1.27))))
      )
      (pin output line (at -7.62 -25.4 90) (length 5.08)
        (name "RST" (effects (font (size 1.27 1.27))))
        (number "20" (effects (font (size 1.27 1.27))))
      )
      (pin input inverted (at -5.08 -25.4 90) (length 5.08)
        (name "~{RDD}" (effects (font (size 1.27 1.27))))
        (number "21" (effects (font (size 1.27 1.27))))
      )
      (pin output inverted (at -2.54 -25.4 90) (length 5.08)
        (name "~{XT2}" (effects (font (size 1.27 1.27))))
        (number "22" (effects (font (size 1.27 1.27))))
      )
      (pin input line (at 0 -25.4 90) (length 5.08)
        (name "XT2" (effects (font (size 1.27 1.27))))
        (number "23" (effects (font (size 1.27 1.27))))
      )
      (pin input line (at 2.54 -25.4 90) (length 5.08)
        (name "DRV" (effects (font (size 1.27 1.27))))
        (number "24" (effects (font (size 1.27 1.27))))
      )
      (pin output inverted (at 5.08 -25.4 90) (length 5.08)
        (name "~{XT1}" (effects (font (size 1.27 1.27))))
        (number "25" (effects (font (size 1.27 1.27))))
      )
      (pin input line (at 7.62 -25.4 90) (length 5.08)
        (name "XT1" (effects (font (size 1.27 1.27))))
        (number "26" (effects (font (size 1.27 1.27))))
      )
      (pin input line (at 10.16 -25.4 90) (length 5.08)
        (name "PCVAL" (effects (font (size 1.27 1.27))))
        (number "27" (effects (font (size 1.27 1.27))))
      )
      (pin output inverted (at 12.7 -25.4 90) (length 5.08)
        (name "~{HS}" (effects (font (size 1.27 1.27))))
        (number "28" (effects (font (size 1.27 1.27))))
      )
      (pin output inverted (at 25.4 -12.7 180) (length 5.08)
        (name "~{WE}" (effects (font (size 1.27 1.27))))
        (number "29" (effects (font (size 1.27 1.27))))
      )
      (pin input inverted (at -5.08 25.4 270) (length 5.08)
        (name "~{CS}" (effects (font (size 1.27 1.27))))
        (number "3" (effects (font (size 1.27 1.27))))
      )
      (pin output inverted (at 25.4 -10.16 180) (length 5.08)
        (name "~{WD}" (effects (font (size 1.27 1.27))))
        (number "30" (effects (font (size 1.27 1.27))))
      )
      (pin output inverted (at 25.4 -7.62 180) (length 5.08)
        (name "~{DIRC}" (effects (font (size 1.27 1.27))))
        (number "31" (effects (font (size 1.27 1.27))))
      )
      (pin output inverted (at 25.4 -5.08 180) (length 5.08)
        (name "~{STEP}" (effects (font (size 1.27 1.27))))
        (number "32" (effects (font (size 1.27 1.27))))
      )
      (pin output inverted (at 25.4 -2.54 180) (length 5.08)
        (name "~{DS1}" (effects (font (size 1.27 1.27))))
        (number "33" (effects (font (size 1.27 1.27))))
      )
      (pin power_out line (at 25.4 0 180) (length 5.08)
        (name "VSS" (effects (font (size 1.27 1.27))))
        (number "34" (effects (font (size 1.27 1.27))))
      )
      (pin output inverted (at 25.4 2.54 180) (length 5.08)
        (name "~{DS2}" (effects (font (size 1.27 1.27))))
        (number "35" (effects (font (size 1.27 1.27))))
      )
      (pin output inverted (at 25.4 5.08 180) (length 5.08)
        (name "~{MO1},~{DS3}" (effects (font (size 1.27 1.27))))
        (number "36" (effects (font (size 1.27 1.27))))
      )
      (pin output inverted (at 25.4 7.62 180) (length 5.08)
        (name "~{MO2},~{DS4}" (effects (font (size 1.27 1.27))))
        (number "37" (effects (font (size 1.27 1.27))))
      )
      (pin output inverted (at 25.4 10.16 180) (length 5.08)
        (name "~{HDL}" (effects (font (size 1.27 1.27))))
        (number "38" (effects (font (size 1.27 1.27))))
      )
      (pin output inverted (at 25.4 12.7 180) (length 5.08)
        (name "~{RWC},~{RPM}" (effects (font (size 1.27 1.27))))
        (number "39" (effects (font (size 1.27 1.27))))
      )
      (pin input line (at -7.62 25.4 270) (length 5.08)
        (name "A0" (effects (font (size 1.27 1.27))))
        (number "4" (effects (font (size 1.27 1.27))))
      )
      (pin input inverted (at 12.7 25.4 270) (length 5.08)
        (name "~{DCHG}" (effects (font (size 1.27 1.27))))
        (number "40" (effects (font (size 1.27 1.27))))
      )
      (pin input inverted (at 10.16 25.4 270) (length 5.08)
        (name "~{WP}" (effects (font (size 1.27 1.27))))
        (number "41" (effects (font (size 1.27 1.27))))
      )
      (pin input inverted (at 7.62 25.4 270) (length 5.08)
        (name "~{TR00}" (effects (font (size 1.27 1.27))))
        (number "42" (effects (font (size 1.27 1.27))))
      )
      (pin input inverted (at 5.08 25.4 270) (length 5.08)
        (name "~{IDX}" (effects (font (size 1.27 1.27))))
        (number "43" (effects (font (size 1.27 1.27))))
      )
      (pin power_in line (at 2.54 25.4 270) (length 5.08)
        (name "VCC" (effects (font (size 1.27 1.27))))
        (number "44" (effects (font (size 1.27 1.27))))
      )
      (pin input inverted (at -10.16 25.4 270) (length 5.08)
        (name "~{DACK}" (effects (font (size 1.27 1.27))))
        (number "5" (effects (font (size 1.27 1.27))))
      )
      (pin input line (at -12.7 25.4 270) (length 5.08)
        (name "TC" (effects (font (size 1.27 1.27))))
        (number "6" (effects (font (size 1.27 1.27))))
      )
      (pin bidirectional line (at -25.4 12.7 0) (length 5.08)
        (name "DB0" (effects (font (size 1.27 1.27))))
        (number "7" (effects (font (size 1.27 1.27))))
      )
      (pin bidirectional line (at -25.4 10.16 0) (length 5.08)
        (name "DB1" (effects (font (size 1.27 1.27))))
        (number "8" (effects (font (size 1.27 1.27))))
      )
      (pin bidirectional line (at -25.4 7.62 0) (length 5.08)
        (name "DB2" (effects (font (size 1.27 1.27))))
        (number "9" (effects (font (size 1.27 1.27))))
      )
    )
    (symbol "WD37C65-PLCC_0_1"
      (rectangle (start -20.32 20.32) (end 20.32 -20.32)
        (stroke (width 0) (type default) (color 0 0 0 0))
        (fill (type background))
      )
    )
  )
)
