(kicad_sch (version 20211123) (generator eeschema)

  (uuid b866b502-0c2e-42e3-9c11-0abd37f6ee02)

  (paper "A4")

  (lib_symbols
    (symbol "Interface:FLOPPY_DRIVE" (pin_names (offset 1.016)) (in_bom yes) (on_board yes)
      (property "Reference" "J" (id 0) (at 0 24.13 0)
        (effects (font (size 1.27 1.27)))
      )
      (property "Value" "FLOPPY_DRIVE" (id 1) (at 0 26.67 0)
        (effects (font (size 1.27 1.27)))
      )
      (property "Footprint" "" (id 2) (at -5.08 0 0)
        (effects (font (size 1.27 1.27)) hide)
      )
      (property "Datasheet" "~" (id 3) (at -5.08 0 0)
        (effects (font (size 1.27 1.27)) hide)
      )
      (property "ki_keywords" "connector" (id 4) (at 0 0 0)
        (effects (font (size 1.27 1.27)) hide)
      )
      (property "ki_description" "Generic connector, double row, 02x17, odd/even pin numbering scheme (row 1 odd numbers, row 2 even numbers), script generated (kicad-library-utils/schlib/autogen/connector/)" (id 5) (at 0 0 0)
        (effects (font (size 1.27 1.27)) hide)
      )
      (property "ki_fp_filters" "Connector*:*_2x??_*" (id 6) (at 0 0 0)
        (effects (font (size 1.27 1.27)) hide)
      )
      (symbol "FLOPPY_DRIVE_1_1"
        (rectangle (start -7.62 22.86) (end 7.62 -22.86)
          (stroke (width 0.254) (type default) (color 0 0 0 0))
          (fill (type background))
        )
        (pin passive line (at -12.7 20.32 0) (length 5.08)
          (name "GND" (effects (font (size 1.27 1.27))))
          (number "1" (effects (font (size 1.27 1.27))))
        )
        (pin passive inverted (at 12.7 10.16 180) (length 5.08)
          (name "~{MOTEA}" (effects (font (size 1.27 1.27))))
          (number "10" (effects (font (size 1.27 1.27))))
        )
        (pin passive line (at -12.7 7.62 0) (length 5.08)
          (name "GND" (effects (font (size 1.27 1.27))))
          (number "11" (effects (font (size 1.27 1.27))))
        )
        (pin passive inverted (at 12.7 7.62 180) (length 5.08)
          (name "~{DRVSB}" (effects (font (size 1.27 1.27))))
          (number "12" (effects (font (size 1.27 1.27))))
        )
        (pin passive line (at -12.7 5.08 0) (length 5.08)
          (name "GND" (effects (font (size 1.27 1.27))))
          (number "13" (effects (font (size 1.27 1.27))))
        )
        (pin passive inverted (at 12.7 5.08 180) (length 5.08)
          (name "~{DRVSA}" (effects (font (size 1.27 1.27))))
          (number "14" (effects (font (size 1.27 1.27))))
        )
        (pin passive line (at -12.7 2.54 0) (length 5.08)
          (name "GND" (effects (font (size 1.27 1.27))))
          (number "15" (effects (font (size 1.27 1.27))))
        )
        (pin passive inverted (at 12.7 2.54 180) (length 5.08)
          (name "~{MOTEB}" (effects (font (size 1.27 1.27))))
          (number "16" (effects (font (size 1.27 1.27))))
        )
        (pin passive line (at -12.7 0 0) (length 5.08)
          (name "GND" (effects (font (size 1.27 1.27))))
          (number "17" (effects (font (size 1.27 1.27))))
        )
        (pin passive inverted (at 12.7 0 180) (length 5.08)
          (name "~{DIR}" (effects (font (size 1.27 1.27))))
          (number "18" (effects (font (size 1.27 1.27))))
        )
        (pin passive line (at -12.7 -2.54 0) (length 5.08)
          (name "GND" (effects (font (size 1.27 1.27))))
          (number "19" (effects (font (size 1.27 1.27))))
        )
        (pin passive inverted (at 12.7 20.32 180) (length 5.08)
          (name "~{REDWC}" (effects (font (size 1.27 1.27))))
          (number "2" (effects (font (size 1.27 1.27))))
        )
        (pin passive inverted (at 12.7 -2.54 180) (length 5.08)
          (name "~{STEP}" (effects (font (size 1.27 1.27))))
          (number "20" (effects (font (size 1.27 1.27))))
        )
        (pin passive line (at -12.7 -5.08 0) (length 5.08)
          (name "GND" (effects (font (size 1.27 1.27))))
          (number "21" (effects (font (size 1.27 1.27))))
        )
        (pin passive inverted (at 12.7 -5.08 180) (length 5.08)
          (name "~{WDATA}" (effects (font (size 1.27 1.27))))
          (number "22" (effects (font (size 1.27 1.27))))
        )
        (pin passive line (at -12.7 -7.62 0) (length 5.08)
          (name "GND" (effects (font (size 1.27 1.27))))
          (number "23" (effects (font (size 1.27 1.27))))
        )
        (pin passive inverted (at 12.7 -7.62 180) (length 5.08)
          (name "~{WGATE}" (effects (font (size 1.27 1.27))))
          (number "24" (effects (font (size 1.27 1.27))))
        )
        (pin passive line (at -12.7 -10.16 0) (length 5.08)
          (name "GND" (effects (font (size 1.27 1.27))))
          (number "25" (effects (font (size 1.27 1.27))))
        )
        (pin passive inverted (at 12.7 -10.16 180) (length 5.08)
          (name "~{TRK0}" (effects (font (size 1.27 1.27))))
          (number "26" (effects (font (size 1.27 1.27))))
        )
        (pin passive line (at -12.7 -12.7 0) (length 5.08)
          (name "GND" (effects (font (size 1.27 1.27))))
          (number "27" (effects (font (size 1.27 1.27))))
        )
        (pin passive inverted (at 12.7 -12.7 180) (length 5.08)
          (name "~{WPT}" (effects (font (size 1.27 1.27))))
          (number "28" (effects (font (size 1.27 1.27))))
        )
        (pin passive line (at -12.7 -15.24 0) (length 5.08)
          (name "GND" (effects (font (size 1.27 1.27))))
          (number "29" (effects (font (size 1.27 1.27))))
        )
        (pin passive inverted (at 12.7 -15.24 180) (length 5.08)
          (name "~{RDATA}" (effects (font (size 1.27 1.27))))
          (number "30" (effects (font (size 1.27 1.27))))
        )
        (pin passive line (at -12.7 -17.78 0) (length 5.08)
          (name "GND" (effects (font (size 1.27 1.27))))
          (number "31" (effects (font (size 1.27 1.27))))
        )
        (pin passive inverted (at 12.7 -17.78 180) (length 5.08)
          (name "~{SIDE}" (effects (font (size 1.27 1.27))))
          (number "32" (effects (font (size 1.27 1.27))))
        )
        (pin passive line (at -12.7 -20.32 0) (length 5.08)
          (name "GND" (effects (font (size 1.27 1.27))))
          (number "33" (effects (font (size 1.27 1.27))))
        )
        (pin passive inverted (at 12.7 -20.32 180) (length 5.08)
          (name "~{DSKCHG}" (effects (font (size 1.27 1.27))))
          (number "34" (effects (font (size 1.27 1.27))))
        )
        (pin passive line (at 12.7 17.78 180) (length 5.08)
          (name "NC" (effects (font (size 1.27 1.27))))
          (number "4" (effects (font (size 1.27 1.27))))
        )
        (pin passive line (at -12.7 15.24 0) (length 5.08)
          (name "GND" (effects (font (size 1.27 1.27))))
          (number "5" (effects (font (size 1.27 1.27))))
        )
        (pin passive line (at 12.7 15.24 180) (length 5.08)
          (name "NC" (effects (font (size 1.27 1.27))))
          (number "6" (effects (font (size 1.27 1.27))))
        )
        (pin passive line (at -12.7 12.7 0) (length 5.08)
          (name "GND" (effects (font (size 1.27 1.27))))
          (number "7" (effects (font (size 1.27 1.27))))
        )
        (pin passive inverted (at 12.7 12.7 180) (length 5.08)
          (name "~{INDEX}" (effects (font (size 1.27 1.27))))
          (number "8" (effects (font (size 1.27 1.27))))
        )
        (pin passive line (at -12.7 10.16 0) (length 5.08)
          (name "GND" (effects (font (size 1.27 1.27))))
          (number "9" (effects (font (size 1.27 1.27))))
        )
      )
    )
    (symbol "Interface:WD37C65-PLCC" (pin_names (offset 0.002)) (in_bom yes) (on_board yes)
      (property "Reference" "U" (id 0) (at -2.54 -1.27 0)
        (effects (font (size 1.27 1.27)))
      )
      (property "Value" "WD37C65-PLCC" (id 1) (at -2.54 1.27 0)
        (effects (font (size 1.27 1.27)))
      )
      (property "Footprint" "Package_LCC:PLCC-44_THT-Socket" (id 2) (at 0 15.24 0)
        (effects (font (size 1.27 1.27)) hide)
      )
      (property "Datasheet" "" (id 3) (at -2.54 22.86 0)
        (effects (font (size 1.27 1.27)) hide)
      )
      (symbol "WD37C65-PLCC_0_0"
        (pin input inverted (at 0 25.4 270) (length 5.08)
          (name "~{RD}" (effects (font (size 1.27 1.27))))
          (number "1" (effects (font (size 1.27 1.27))))
        )
        (pin bidirectional line (at -25.4 5.08 0) (length 5.08)
          (name "DB3" (effects (font (size 1.27 1.27))))
          (number "10" (effects (font (size 1.27 1.27))))
        )
        (pin bidirectional line (at -25.4 2.54 0) (length 5.08)
          (name "DB4" (effects (font (size 1.27 1.27))))
          (number "11" (effects (font (size 1.27 1.27))))
        )
        (pin bidirectional line (at -25.4 0 0) (length 5.08)
          (name "DB5" (effects (font (size 1.27 1.27))))
          (number "12" (effects (font (size 1.27 1.27))))
        )
        (pin bidirectional line (at -25.4 -2.54 0) (length 5.08)
          (name "DB6" (effects (font (size 1.27 1.27))))
          (number "13" (effects (font (size 1.27 1.27))))
        )
        (pin bidirectional line (at -25.4 -5.08 0) (length 5.08)
          (name "DB7" (effects (font (size 1.27 1.27))))
          (number "14" (effects (font (size 1.27 1.27))))
        )
        (pin output line (at -25.4 -7.62 0) (length 5.08)
          (name "DMA" (effects (font (size 1.27 1.27))))
          (number "15" (effects (font (size 1.27 1.27))))
        )
        (pin output line (at -25.4 -10.16 0) (length 5.08)
          (name "IRQ" (effects (font (size 1.27 1.27))))
          (number "16" (effects (font (size 1.27 1.27))))
        )
        (pin input inverted (at -25.4 -12.7 0) (length 5.08)
          (name "~{DCHGEN}" (effects (font (size 1.27 1.27))))
          (number "17" (effects (font (size 1.27 1.27))))
        )
        (pin input inverted (at -12.7 -25.4 90) (length 5.08)
          (name "~{LDOR}" (effects (font (size 1.27 1.27))))
          (number "18" (effects (font (size 1.27 1.27))))
        )
        (pin input inverted (at -10.16 -25.4 90) (length 5.08)
          (name "~{LDCR}" (effects (font (size 1.27 1.27))))
          (number "19" (effects (font (size 1.27 1.27))))
        )
        (pin input inverted (at -2.54 25.4 270) (length 5.08)
          (name "~{WR}" (effects (font (size 1.27 1.27))))
          (number "2" (effects (font (size 1.27 1.27))))
        )
        (pin output line (at -7.62 -25.4 90) (length 5.08)
          (name "RST" (effects (font (size 1.27 1.27))))
          (number "20" (effects (font (size 1.27 1.27))))
        )
        (pin input inverted (at -5.08 -25.4 90) (length 5.08)
          (name "~{RDD}" (effects (font (size 1.27 1.27))))
          (number "21" (effects (font (size 1.27 1.27))))
        )
        (pin output inverted (at -2.54 -25.4 90) (length 5.08)
          (name "~{XT2}" (effects (font (size 1.27 1.27))))
          (number "22" (effects (font (size 1.27 1.27))))
        )
        (pin input line (at 0 -25.4 90) (length 5.08)
          (name "XT2" (effects (font (size 1.27 1.27))))
          (number "23" (effects (font (size 1.27 1.27))))
        )
        (pin input line (at 2.54 -25.4 90) (length 5.08)
          (name "DRV" (effects (font (size 1.27 1.27))))
          (number "24" (effects (font (size 1.27 1.27))))
        )
        (pin output inverted (at 5.08 -25.4 90) (length 5.08)
          (name "~{XT1}" (effects (font (size 1.27 1.27))))
          (number "25" (effects (font (size 1.27 1.27))))
        )
        (pin input line (at 7.62 -25.4 90) (length 5.08)
          (name "XT1" (effects (font (size 1.27 1.27))))
          (number "26" (effects (font (size 1.27 1.27))))
        )
        (pin input line (at 10.16 -25.4 90) (length 5.08)
          (name "PCVAL" (effects (font (size 1.27 1.27))))
          (number "27" (effects (font (size 1.27 1.27))))
        )
        (pin output inverted (at 12.7 -25.4 90) (length 5.08)
          (name "~{HS}" (effects (font (size 1.27 1.27))))
          (number "28" (effects (font (size 1.27 1.27))))
        )
        (pin output inverted (at 25.4 -12.7 180) (length 5.08)
          (name "~{WE}" (effects (font (size 1.27 1.27))))
          (number "29" (effects (font (size 1.27 1.27))))
        )
        (pin input inverted (at -5.08 25.4 270) (length 5.08)
          (name "~{CS}" (effects (font (size 1.27 1.27))))
          (number "3" (effects (font (size 1.27 1.27))))
        )
        (pin output inverted (at 25.4 -10.16 180) (length 5.08)
          (name "~{WD}" (effects (font (size 1.27 1.27))))
          (number "30" (effects (font (size 1.27 1.27))))
        )
        (pin output inverted (at 25.4 -7.62 180) (length 5.08)
          (name "~{DIRC}" (effects (font (size 1.27 1.27))))
          (number "31" (effects (font (size 1.27 1.27))))
        )
        (pin output inverted (at 25.4 -5.08 180) (length 5.08)
          (name "~{STEP}" (effects (font (size 1.27 1.27))))
          (number "32" (effects (font (size 1.27 1.27))))
        )
        (pin output inverted (at 25.4 -2.54 180) (length 5.08)
          (name "~{DS1}" (effects (font (size 1.27 1.27))))
          (number "33" (effects (font (size 1.27 1.27))))
        )
        (pin power_out line (at 25.4 0 180) (length 5.08)
          (name "VSS" (effects (font (size 1.27 1.27))))
          (number "34" (effects (font (size 1.27 1.27))))
        )
        (pin output inverted (at 25.4 2.54 180) (length 5.08)
          (name "~{DS2}" (effects (font (size 1.27 1.27))))
          (number "35" (effects (font (size 1.27 1.27))))
        )
        (pin output inverted (at 25.4 5.08 180) (length 5.08)
          (name "~{MO1},~{DS3}" (effects (font (size 1.27 1.27))))
          (number "36" (effects (font (size 1.27 1.27))))
        )
        (pin output inverted (at 25.4 7.62 180) (length 5.08)
          (name "~{MO2},~{DS4}" (effects (font (size 1.27 1.27))))
          (number "37" (effects (font (size 1.27 1.27))))
        )
        (pin output inverted (at 25.4 10.16 180) (length 5.08)
          (name "~{HDL}" (effects (font (size 1.27 1.27))))
          (number "38" (effects (font (size 1.27 1.27))))
        )
        (pin output inverted (at 25.4 12.7 180) (length 5.08)
          (name "~{RWC},~{RPM}" (effects (font (size 1.27 1.27))))
          (number "39" (effects (font (size 1.27 1.27))))
        )
        (pin input line (at -7.62 25.4 270) (length 5.08)
          (name "A0" (effects (font (size 1.27 1.27))))
          (number "4" (effects (font (size 1.27 1.27))))
        )
        (pin input inverted (at 12.7 25.4 270) (length 5.08)
          (name "~{DCHG}" (effects (font (size 1.27 1.27))))
          (number "40" (effects (font (size 1.27 1.27))))
        )
        (pin input inverted (at 10.16 25.4 270) (length 5.08)
          (name "~{WP}" (effects (font (size 1.27 1.27))))
          (number "41" (effects (font (size 1.27 1.27))))
        )
        (pin input inverted (at 7.62 25.4 270) (length 5.08)
          (name "~{TR00}" (effects (font (size 1.27 1.27))))
          (number "42" (effects (font (size 1.27 1.27))))
        )
        (pin input inverted (at 5.08 25.4 270) (length 5.08)
          (name "~{IDX}" (effects (font (size 1.27 1.27))))
          (number "43" (effects (font (size 1.27 1.27))))
        )
        (pin power_in line (at 2.54 25.4 270) (length 5.08)
          (name "VCC" (effects (font (size 1.27 1.27))))
          (number "44" (effects (font (size 1.27 1.27))))
        )
        (pin input inverted (at -10.16 25.4 270) (length 5.08)
          (name "~{DACK}" (effects (font (size 1.27 1.27))))
          (number "5" (effects (font (size 1.27 1.27))))
        )
        (pin input line (at -12.7 25.4 270) (length 5.08)
          (name "TC" (effects (font (size 1.27 1.27))))
          (number "6" (effects (font (size 1.27 1.27))))
        )
        (pin bidirectional line (at -25.4 12.7 0) (length 5.08)
          (name "DB0" (effects (font (size 1.27 1.27))))
          (number "7" (effects (font (size 1.27 1.27))))
        )
        (pin bidirectional line (at -25.4 10.16 0) (length 5.08)
          (name "DB1" (effects (font (size 1.27 1.27))))
          (number "8" (effects (font (size 1.27 1.27))))
        )
        (pin bidirectional line (at -25.4 7.62 0) (length 5.08)
          (name "DB2" (effects (font (size 1.27 1.27))))
          (number "9" (effects (font (size 1.27 1.27))))
        )
      )
      (symbol "WD37C65-PLCC_0_1"
        (rectangle (start -20.32 20.32) (end 20.32 -20.32)
          (stroke (width 0) (type default) (color 0 0 0 0))
          (fill (type background))
        )
      )
    )
    (symbol "power:GND" (power) (pin_names (offset 0)) (in_bom yes) (on_board yes)
      (property "Reference" "#PWR" (id 0) (at 0 -6.35 0)
        (effects (font (size 1.27 1.27)) hide)
      )
      (property "Value" "GND" (id 1) (at 0 -3.81 0)
        (effects (font (size 1.27 1.27)))
      )
      (property "Footprint" "" (id 2) (at 0 0 0)
        (effects (font (size 1.27 1.27)) hide)
      )
      (property "Datasheet" "" (id 3) (at 0 0 0)
        (effects (font (size 1.27 1.27)) hide)
      )
      (property "ki_keywords" "power-flag" (id 4) (at 0 0 0)
        (effects (font (size 1.27 1.27)) hide)
      )
      (property "ki_description" "Power symbol creates a global label with name \"GND\" , ground" (id 5) (at 0 0 0)
        (effects (font (size 1.27 1.27)) hide)
      )
      (symbol "GND_0_1"
        (polyline
          (pts
            (xy 0 0)
            (xy 0 -1.27)
            (xy 1.27 -1.27)
            (xy 0 -2.54)
            (xy -1.27 -1.27)
            (xy 0 -1.27)
          )
          (stroke (width 0) (type default) (color 0 0 0 0))
          (fill (type none))
        )
      )
      (symbol "GND_1_1"
        (pin power_in line (at 0 0 270) (length 0) hide
          (name "GND" (effects (font (size 1.27 1.27))))
          (number "1" (effects (font (size 1.27 1.27))))
        )
      )
    )
    (symbol "power:VCC" (power) (pin_names (offset 0)) (in_bom yes) (on_board yes)
      (property "Reference" "#PWR" (id 0) (at 0 -3.81 0)
        (effects (font (size 1.27 1.27)) hide)
      )
      (property "Value" "VCC" (id 1) (at 0 3.81 0)
        (effects (font (size 1.27 1.27)))
      )
      (property "Footprint" "" (id 2) (at 0 0 0)
        (effects (font (size 1.27 1.27)) hide)
      )
      (property "Datasheet" "" (id 3) (at 0 0 0)
        (effects (font (size 1.27 1.27)) hide)
      )
      (property "ki_keywords" "power-flag" (id 4) (at 0 0 0)
        (effects (font (size 1.27 1.27)) hide)
      )
      (property "ki_description" "Power symbol creates a global label with name \"VCC\"" (id 5) (at 0 0 0)
        (effects (font (size 1.27 1.27)) hide)
      )
      (symbol "VCC_0_1"
        (polyline
          (pts
            (xy -0.762 1.27)
            (xy 0 2.54)
          )
          (stroke (width 0) (type default) (color 0 0 0 0))
          (fill (type none))
        )
        (polyline
          (pts
            (xy 0 0)
            (xy 0 2.54)
          )
          (stroke (width 0) (type default) (color 0 0 0 0))
          (fill (type none))
        )
        (polyline
          (pts
            (xy 0 2.54)
            (xy 0.762 1.27)
          )
          (stroke (width 0) (type default) (color 0 0 0 0))
          (fill (type none))
        )
      )
      (symbol "VCC_1_1"
        (pin power_in line (at 0 0 90) (length 0) hide
          (name "VCC" (effects (font (size 1.27 1.27))))
          (number "1" (effects (font (size 1.27 1.27))))
        )
      )
    )
  )

  (junction (at 262.89 95.25) (diameter 0) (color 0 0 0 0)
    (uuid 16fa19de-73c3-4832-9276-44acfefa809c)
  )
  (junction (at 262.89 92.71) (diameter 0) (color 0 0 0 0)
    (uuid 1b47e854-257c-47f1-9f1d-a15f81ea6d49)
  )
  (junction (at 262.89 125.73) (diameter 0) (color 0 0 0 0)
    (uuid 2f1c970c-1809-446b-abce-dcd725a61e9f)
  )
  (junction (at 262.89 115.57) (diameter 0) (color 0 0 0 0)
    (uuid 494410a9-1aee-4728-b45c-27ebd4b2bcb6)
  )
  (junction (at 262.89 102.87) (diameter 0) (color 0 0 0 0)
    (uuid 5726c25e-32f9-4f98-82c2-96a4724e7f63)
  )
  (junction (at 262.89 87.63) (diameter 0) (color 0 0 0 0)
    (uuid 926e6988-5acb-4980-b78e-a9777b80f72d)
  )
  (junction (at 262.89 120.65) (diameter 0) (color 0 0 0 0)
    (uuid 953fe3eb-b0ab-4677-9b15-d14c7d39d267)
  )
  (junction (at 262.89 105.41) (diameter 0) (color 0 0 0 0)
    (uuid a65b63a2-7a28-48b5-a41c-b2d0964ffb33)
  )
  (junction (at 262.89 100.33) (diameter 0) (color 0 0 0 0)
    (uuid a752c04d-5ceb-4d16-bf6d-ad911e64f812)
  )
  (junction (at 262.89 118.11) (diameter 0) (color 0 0 0 0)
    (uuid be96eb3e-e883-406d-85c4-3e5fdd5138ee)
  )
  (junction (at 262.89 113.03) (diameter 0) (color 0 0 0 0)
    (uuid cd6ae041-abe2-4a70-a232-e01610a58ffd)
  )
  (junction (at 262.89 110.49) (diameter 0) (color 0 0 0 0)
    (uuid d1c3f8bd-02cf-442c-9c36-26f1537a4717)
  )
  (junction (at 262.89 107.95) (diameter 0) (color 0 0 0 0)
    (uuid dfcf000a-85da-4e59-80ab-bbb611d31763)
  )
  (junction (at 262.89 90.17) (diameter 0) (color 0 0 0 0)
    (uuid e0b20410-3fb4-4cc3-9c62-b7334bd64b2f)
  )
  (junction (at 262.89 97.79) (diameter 0) (color 0 0 0 0)
    (uuid e79aab5b-4308-4a90-84cc-dd1b49eaf176)
  )

  (bus_entry (at 218.44 105.41) (size 2.54 2.54)
    (stroke (width 0) (type default) (color 0 0 0 0))
    (uuid 093529a1-5bf6-498d-8381-dd6f0cdd2fc5)
  )
  (bus_entry (at 95.25 97.79) (size 2.54 2.54)
    (stroke (width 0) (type default) (color 0 0 0 0))
    (uuid 097e6d4a-4d6a-42fa-9203-3fde3e61a49c)
  )
  (bus_entry (at 163.83 107.95) (size 2.54 -2.54)
    (stroke (width 0) (type default) (color 0 0 0 0))
    (uuid 1278d51b-a811-4aeb-b7d5-26397e497409)
  )
  (bus_entry (at 218.44 95.25) (size 2.54 2.54)
    (stroke (width 0) (type default) (color 0 0 0 0))
    (uuid 138ca04b-0f65-45e3-867f-f6799e819e8d)
  )
  (bus_entry (at 218.44 100.33) (size 2.54 2.54)
    (stroke (width 0) (type default) (color 0 0 0 0))
    (uuid 170b6a7e-a026-432c-b598-40450e5c96c4)
  )
  (bus_entry (at 163.83 100.33) (size 2.54 -2.54)
    (stroke (width 0) (type default) (color 0 0 0 0))
    (uuid 44c401a2-6f87-40b4-95a9-2de5024e4bde)
  )
  (bus_entry (at 218.44 107.95) (size 2.54 2.54)
    (stroke (width 0) (type default) (color 0 0 0 0))
    (uuid 49308264-72e9-4cce-a368-9f569bd671bc)
  )
  (bus_entry (at 218.44 97.79) (size 2.54 2.54)
    (stroke (width 0) (type default) (color 0 0 0 0))
    (uuid 49931021-a2bc-41f0-a44a-0e09450adb3b)
  )
  (bus_entry (at 95.25 90.17) (size 2.54 2.54)
    (stroke (width 0) (type default) (color 0 0 0 0))
    (uuid 4d778a84-f2f9-414c-9c09-6c1839ebbafd)
  )
  (bus_entry (at 163.83 69.85) (size 2.54 -2.54)
    (stroke (width 0) (type default) (color 0 0 0 0))
    (uuid 506687b2-7a48-49e8-9655-0120dce1818d)
  )
  (bus_entry (at 218.44 85.09) (size 2.54 2.54)
    (stroke (width 0) (type default) (color 0 0 0 0))
    (uuid 5d720968-b954-4e11-a3f1-b11aaa9cc96c)
  )
  (bus_entry (at 163.83 67.31) (size 2.54 -2.54)
    (stroke (width 0) (type default) (color 0 0 0 0))
    (uuid 621e2d82-266c-418a-aa4c-49b9fcb5bfa7)
  )
  (bus_entry (at 95.25 105.41) (size 2.54 2.54)
    (stroke (width 0) (type default) (color 0 0 0 0))
    (uuid 65322839-3f2b-4b54-a7f7-5a44649f8c16)
  )
  (bus_entry (at 163.83 97.79) (size 2.54 -2.54)
    (stroke (width 0) (type default) (color 0 0 0 0))
    (uuid 79ed7726-a0ce-4ca6-ad57-4f4b7898931b)
  )
  (bus_entry (at 218.44 115.57) (size 2.54 2.54)
    (stroke (width 0) (type default) (color 0 0 0 0))
    (uuid 7deb7c36-6e18-4c73-a53d-176646f6bd31)
  )
  (bus_entry (at 95.25 102.87) (size 2.54 2.54)
    (stroke (width 0) (type default) (color 0 0 0 0))
    (uuid 89fe9faf-8880-4e14-9037-6c79a5b183ae)
  )
  (bus_entry (at 218.44 102.87) (size 2.54 2.54)
    (stroke (width 0) (type default) (color 0 0 0 0))
    (uuid 8a0d5e2c-ef52-4b1d-9953-b7c603222556)
  )
  (bus_entry (at 218.44 123.19) (size 2.54 2.54)
    (stroke (width 0) (type default) (color 0 0 0 0))
    (uuid 9030daa1-79b3-4dda-a792-9eb4207b3340)
  )
  (bus_entry (at 95.25 95.25) (size 2.54 2.54)
    (stroke (width 0) (type default) (color 0 0 0 0))
    (uuid 9e89a913-7e90-4955-a1c9-683d86f169dc)
  )
  (bus_entry (at 218.44 90.17) (size 2.54 2.54)
    (stroke (width 0) (type default) (color 0 0 0 0))
    (uuid a1795008-fbc7-4483-bac0-de6094bd6c3c)
  )
  (bus_entry (at 163.83 72.39) (size 2.54 -2.54)
    (stroke (width 0) (type default) (color 0 0 0 0))
    (uuid a35b3f0b-540a-448a-9770-646b24f546df)
  )
  (bus_entry (at 218.44 87.63) (size 2.54 2.54)
    (stroke (width 0) (type default) (color 0 0 0 0))
    (uuid ada5b2e7-f589-4ab9-9b27-5ad96ce53202)
  )
  (bus_entry (at 95.25 100.33) (size 2.54 2.54)
    (stroke (width 0) (type default) (color 0 0 0 0))
    (uuid d6e51d0b-b61f-4258-962a-0ab013466967)
  )
  (bus_entry (at 163.83 139.7) (size 2.54 -2.54)
    (stroke (width 0) (type default) (color 0 0 0 0))
    (uuid dad97624-bb54-4952-ac2b-04076b3c89fb)
  )
  (bus_entry (at 218.44 110.49) (size 2.54 2.54)
    (stroke (width 0) (type default) (color 0 0 0 0))
    (uuid ded60096-a1a1-4052-bf0a-140a630a35e0)
  )
  (bus_entry (at 218.44 92.71) (size 2.54 2.54)
    (stroke (width 0) (type default) (color 0 0 0 0))
    (uuid e3397cfe-c3e9-42a7-be37-7b8ca2194ba1)
  )
  (bus_entry (at 218.44 113.03) (size 2.54 2.54)
    (stroke (width 0) (type default) (color 0 0 0 0))
    (uuid e71cd2df-10af-4cea-9c7a-c1d90178e8de)
  )
  (bus_entry (at 163.83 92.71) (size 2.54 -2.54)
    (stroke (width 0) (type default) (color 0 0 0 0))
    (uuid ec3c2ca0-a536-4c16-a7a7-b41fa9c213b7)
  )
  (bus_entry (at 163.83 102.87) (size 2.54 -2.54)
    (stroke (width 0) (type default) (color 0 0 0 0))
    (uuid ed3b4a54-6de7-4309-b79f-5e2279f7c056)
  )
  (bus_entry (at 163.83 115.57) (size 2.54 -2.54)
    (stroke (width 0) (type default) (color 0 0 0 0))
    (uuid ef06d521-59b0-4552-8cff-7983c24df86b)
  )
  (bus_entry (at 163.83 110.49) (size 2.54 -2.54)
    (stroke (width 0) (type default) (color 0 0 0 0))
    (uuid f2dbde08-a179-4ed2-91a2-36eff1063ac8)
  )
  (bus_entry (at 163.83 113.03) (size 2.54 -2.54)
    (stroke (width 0) (type default) (color 0 0 0 0))
    (uuid f3bbddd5-037d-4896-a16e-6f80bac587bb)
  )
  (bus_entry (at 163.83 118.11) (size 2.54 -2.54)
    (stroke (width 0) (type default) (color 0 0 0 0))
    (uuid f64595df-fda2-4667-9e64-20d3a4edd69d)
  )
  (bus_entry (at 95.25 92.71) (size 2.54 2.54)
    (stroke (width 0) (type default) (color 0 0 0 0))
    (uuid f88007c2-d11c-425c-8dca-b103dd3e997e)
  )
  (bus_entry (at 163.83 135.89) (size 2.54 -2.54)
    (stroke (width 0) (type default) (color 0 0 0 0))
    (uuid fb4b2300-7443-4727-9406-41f4bdccfdd7)
  )
  (bus_entry (at 95.25 107.95) (size 2.54 2.54)
    (stroke (width 0) (type default) (color 0 0 0 0))
    (uuid fd7291b7-d71d-4b51-9c51-93d63a3dd102)
  )

  (wire (pts (xy 262.89 118.11) (xy 262.89 120.65))
    (stroke (width 0) (type default) (color 0 0 0 0))
    (uuid 01d5d6fc-6ce1-437d-a39c-e2d6682ce000)
  )
  (wire (pts (xy 48.26 49.53) (xy 130.81 49.53))
    (stroke (width 0) (type default) (color 0 0 0 0))
    (uuid 05516bf8-2966-48b9-8862-1e2d91cc3621)
  )
  (wire (pts (xy 256.54 97.79) (xy 262.89 97.79))
    (stroke (width 0) (type default) (color 0 0 0 0))
    (uuid 06063963-a400-4177-b3a0-ca1c1b90f586)
  )
  (bus (pts (xy 218.44 113.03) (xy 218.44 115.57))
    (stroke (width 0) (type default) (color 0 0 0 0))
    (uuid 0676ee00-9c00-4642-bfd6-f02ccf1ba7bb)
  )

  (wire (pts (xy 220.98 118.11) (xy 231.14 118.11))
    (stroke (width 0) (type default) (color 0 0 0 0))
    (uuid 0b3cc727-812b-4ea9-afcd-8170b7e8f5b6)
  )
  (wire (pts (xy 256.54 118.11) (xy 262.89 118.11))
    (stroke (width 0) (type default) (color 0 0 0 0))
    (uuid 0d5bb5d6-1333-4364-bb68-1db757da8683)
  )
  (wire (pts (xy 262.89 97.79) (xy 262.89 100.33))
    (stroke (width 0) (type default) (color 0 0 0 0))
    (uuid 0f60e1f8-6edd-40dd-ab86-22a6627917e6)
  )
  (bus (pts (xy 166.37 100.33) (xy 166.37 97.79))
    (stroke (width 0) (type default) (color 0 0 0 0))
    (uuid 15241399-470f-4dbc-ba36-02c5f2d470f0)
  )
  (bus (pts (xy 218.44 102.87) (xy 218.44 105.41))
    (stroke (width 0) (type default) (color 0 0 0 0))
    (uuid 15842be7-7a15-4df7-89b2-1a1b07f4d468)
  )

  (wire (pts (xy 125.73 57.15) (xy 125.73 80.01))
    (stroke (width 0) (type default) (color 0 0 0 0))
    (uuid 16421dd4-4204-4de8-8fbe-355c8b57cf5e)
  )
  (bus (pts (xy 218.44 107.95) (xy 218.44 110.49))
    (stroke (width 0) (type default) (color 0 0 0 0))
    (uuid 18023db4-1ccf-47f6-b722-cd9ce67d3696)
  )

  (wire (pts (xy 220.98 95.25) (xy 231.14 95.25))
    (stroke (width 0) (type default) (color 0 0 0 0))
    (uuid 1815a353-793b-47af-85f0-89c78b886526)
  )
  (wire (pts (xy 262.89 125.73) (xy 262.89 132.08))
    (stroke (width 0) (type default) (color 0 0 0 0))
    (uuid 1969fb8c-ccc8-49a1-aae0-9db6d8cff883)
  )
  (bus (pts (xy 218.44 92.71) (xy 218.44 95.25))
    (stroke (width 0) (type default) (color 0 0 0 0))
    (uuid 19a9554a-7da7-40e2-a671-e0ab66c6fe21)
  )

  (wire (pts (xy 220.98 92.71) (xy 231.14 92.71))
    (stroke (width 0) (type default) (color 0 0 0 0))
    (uuid 1b49da63-bdf3-44ab-8a02-259944305913)
  )
  (bus (pts (xy 166.37 67.31) (xy 166.37 64.77))
    (stroke (width 0) (type default) (color 0 0 0 0))
    (uuid 1baa5779-cb0c-4711-8ab4-239185229a2e)
  )

  (wire (pts (xy 97.79 100.33) (xy 105.41 100.33))
    (stroke (width 0) (type default) (color 0 0 0 0))
    (uuid 1bf4b008-950b-42d7-8bc8-862373f29a58)
  )
  (bus (pts (xy 95.25 107.95) (xy 95.25 105.41))
    (stroke (width 0) (type default) (color 0 0 0 0))
    (uuid 1eebdf37-653d-45dc-a280-b28712b2635e)
  )

  (wire (pts (xy 256.54 105.41) (xy 262.89 105.41))
    (stroke (width 0) (type default) (color 0 0 0 0))
    (uuid 234d7a56-57ec-4e2b-aaeb-b5376ea9c10c)
  )
  (bus (pts (xy 218.44 110.49) (xy 218.44 113.03))
    (stroke (width 0) (type default) (color 0 0 0 0))
    (uuid 2873edb4-d558-49b1-9fc4-0ace6eb4e370)
  )

  (wire (pts (xy 262.89 95.25) (xy 262.89 97.79))
    (stroke (width 0) (type default) (color 0 0 0 0))
    (uuid 2b2c0ec9-48d5-46a3-a538-dfd135f38a98)
  )
  (bus (pts (xy 218.44 90.17) (xy 218.44 92.71))
    (stroke (width 0) (type default) (color 0 0 0 0))
    (uuid 2e0dace3-feb2-44c5-a0b5-2f8a1ac38ab9)
  )

  (wire (pts (xy 262.89 87.63) (xy 262.89 90.17))
    (stroke (width 0) (type default) (color 0 0 0 0))
    (uuid 31bb06ed-94fd-4a64-8e19-223e7f9beae8)
  )
  (wire (pts (xy 262.89 100.33) (xy 262.89 102.87))
    (stroke (width 0) (type default) (color 0 0 0 0))
    (uuid 345cada8-2f19-4385-bd8c-c7cc2eefd598)
  )
  (bus (pts (xy 95.25 100.33) (xy 95.25 97.79))
    (stroke (width 0) (type default) (color 0 0 0 0))
    (uuid 37064245-d3d0-4672-a3ed-03ba548269c6)
  )
  (bus (pts (xy 166.37 113.03) (xy 166.37 110.49))
    (stroke (width 0) (type default) (color 0 0 0 0))
    (uuid 3aa1fc3e-68f7-4879-8332-f12f6402d499)
  )
  (bus (pts (xy 218.44 60.96) (xy 218.44 85.09))
    (stroke (width 0) (type default) (color 0 0 0 0))
    (uuid 3e96cf28-e831-46dd-9a6f-8730d6c39892)
  )

  (wire (pts (xy 220.98 87.63) (xy 231.14 87.63))
    (stroke (width 0) (type default) (color 0 0 0 0))
    (uuid 3f7bfabe-8572-4d3b-a08b-f4190651d906)
  )
  (bus (pts (xy 218.44 115.57) (xy 218.44 123.19))
    (stroke (width 0) (type default) (color 0 0 0 0))
    (uuid 3fdbd4a6-8d6b-4e3f-aa85-25d0316248fa)
  )
  (bus (pts (xy 218.44 87.63) (xy 218.44 90.17))
    (stroke (width 0) (type default) (color 0 0 0 0))
    (uuid 40fc5873-8540-4841-8d7c-eefc20667183)
  )

  (wire (pts (xy 97.79 107.95) (xy 105.41 107.95))
    (stroke (width 0) (type default) (color 0 0 0 0))
    (uuid 410fda7c-c7f8-43d1-b72e-4bfd56dd465e)
  )
  (bus (pts (xy 218.44 85.09) (xy 218.44 87.63))
    (stroke (width 0) (type default) (color 0 0 0 0))
    (uuid 46380099-e490-41b0-b0f0-e63e3484b2e2)
  )

  (wire (pts (xy 135.89 67.31) (xy 163.83 67.31))
    (stroke (width 0) (type default) (color 0 0 0 0))
    (uuid 47106df3-cfba-4211-b23c-85dcf56d72d8)
  )
  (wire (pts (xy 156.21 100.33) (xy 163.83 100.33))
    (stroke (width 0) (type default) (color 0 0 0 0))
    (uuid 4b8f2e44-2577-4125-b5ec-336c4f49743d)
  )
  (wire (pts (xy 262.89 90.17) (xy 262.89 92.71))
    (stroke (width 0) (type default) (color 0 0 0 0))
    (uuid 4d155e92-785d-4c26-8b3c-af963eaf8935)
  )
  (bus (pts (xy 95.25 90.17) (xy 95.25 64.77))
    (stroke (width 0) (type default) (color 0 0 0 0))
    (uuid 4d7c4164-f2df-4dc3-9dfa-19a9c817de9e)
  )

  (wire (pts (xy 262.89 107.95) (xy 262.89 110.49))
    (stroke (width 0) (type default) (color 0 0 0 0))
    (uuid 4ffd646e-e6c6-4537-968e-01ac03fac697)
  )
  (wire (pts (xy 256.54 113.03) (xy 262.89 113.03))
    (stroke (width 0) (type default) (color 0 0 0 0))
    (uuid 546f09c0-ef5c-4b7d-984c-ff826d364a47)
  )
  (wire (pts (xy 97.79 110.49) (xy 105.41 110.49))
    (stroke (width 0) (type default) (color 0 0 0 0))
    (uuid 552dbc45-2cfc-42a6-9d39-280b81290084)
  )
  (wire (pts (xy 220.98 113.03) (xy 231.14 113.03))
    (stroke (width 0) (type default) (color 0 0 0 0))
    (uuid 58bc2552-58b4-413f-9eee-093d61d0feca)
  )
  (wire (pts (xy 156.21 92.71) (xy 163.83 92.71))
    (stroke (width 0) (type default) (color 0 0 0 0))
    (uuid 59ce5585-555b-43ec-bca5-cc07d5a0d53e)
  )
  (wire (pts (xy 256.54 102.87) (xy 262.89 102.87))
    (stroke (width 0) (type default) (color 0 0 0 0))
    (uuid 5beebe7a-f109-45b6-941e-7ea2bc60ebd5)
  )
  (wire (pts (xy 48.26 60.96) (xy 123.19 60.96))
    (stroke (width 0) (type default) (color 0 0 0 0))
    (uuid 5d240985-b979-4089-a031-131d9d3a8789)
  )
  (wire (pts (xy 128.27 80.01) (xy 128.27 53.34))
    (stroke (width 0) (type default) (color 0 0 0 0))
    (uuid 60f9f52c-290b-4960-a9ff-916624938c28)
  )
  (bus (pts (xy 95.25 95.25) (xy 95.25 92.71))
    (stroke (width 0) (type default) (color 0 0 0 0))
    (uuid 63da8afb-492e-4cfc-b85a-74d9fa87b632)
  )
  (bus (pts (xy 218.44 95.25) (xy 218.44 97.79))
    (stroke (width 0) (type default) (color 0 0 0 0))
    (uuid 6b23aa98-e76f-49e2-8200-48009b934786)
  )
  (bus (pts (xy 95.25 97.79) (xy 95.25 95.25))
    (stroke (width 0) (type default) (color 0 0 0 0))
    (uuid 73de372f-6d95-44e2-892d-8c05be020420)
  )

  (wire (pts (xy 262.89 125.73) (xy 256.54 125.73))
    (stroke (width 0) (type default) (color 0 0 0 0))
    (uuid 751b0c23-f409-4c89-857c-0ffdb3af0c08)
  )
  (bus (pts (xy 166.37 69.85) (xy 166.37 90.17))
    (stroke (width 0) (type default) (color 0 0 0 0))
    (uuid 7717e2eb-2007-43e2-b58c-995178b00ff3)
  )
  (bus (pts (xy 166.37 69.85) (xy 166.37 67.31))
    (stroke (width 0) (type default) (color 0 0 0 0))
    (uuid 7ad37cf9-907c-4e6f-9b40-91c4b6d0cdd4)
  )

  (wire (pts (xy 97.79 92.71) (xy 105.41 92.71))
    (stroke (width 0) (type default) (color 0 0 0 0))
    (uuid 7b45f33c-5fc2-4231-b589-3ae731ef1773)
  )
  (wire (pts (xy 220.98 102.87) (xy 231.14 102.87))
    (stroke (width 0) (type default) (color 0 0 0 0))
    (uuid 7cc9bdf8-a22e-4bdc-99a0-c2d02f439e07)
  )
  (wire (pts (xy 220.98 107.95) (xy 231.14 107.95))
    (stroke (width 0) (type default) (color 0 0 0 0))
    (uuid 7dece603-ad1f-4073-95d8-f72e56066ae1)
  )
  (wire (pts (xy 220.98 100.33) (xy 231.14 100.33))
    (stroke (width 0) (type default) (color 0 0 0 0))
    (uuid 80fb9f1f-e2e4-43f2-8923-fc5813154926)
  )
  (wire (pts (xy 138.43 69.85) (xy 138.43 80.01))
    (stroke (width 0) (type default) (color 0 0 0 0))
    (uuid 87548d6c-335b-4637-bad3-adec09e4c8fe)
  )
  (bus (pts (xy 166.37 95.25) (xy 166.37 90.17))
    (stroke (width 0) (type default) (color 0 0 0 0))
    (uuid 91aad359-6c12-423a-b1dc-144e68346954)
  )

  (wire (pts (xy 220.98 105.41) (xy 231.14 105.41))
    (stroke (width 0) (type default) (color 0 0 0 0))
    (uuid 9259300b-e48f-41da-bfdc-0de528d7a414)
  )
  (wire (pts (xy 256.54 85.09) (xy 262.89 85.09))
    (stroke (width 0) (type default) (color 0 0 0 0))
    (uuid 92fd8243-b712-42c1-8095-46323334204f)
  )
  (bus (pts (xy 95.25 92.71) (xy 95.25 90.17))
    (stroke (width 0) (type default) (color 0 0 0 0))
    (uuid 947c8300-12ba-41f7-9f6e-cd3fe628164e)
  )

  (wire (pts (xy 133.35 46.99) (xy 133.35 80.01))
    (stroke (width 0) (type default) (color 0 0 0 0))
    (uuid 94d49453-d09d-4a07-80fb-9022cd2b08aa)
  )
  (bus (pts (xy 95.25 102.87) (xy 95.25 100.33))
    (stroke (width 0) (type default) (color 0 0 0 0))
    (uuid 95b84af2-3512-4b8f-b60b-9e4a0c0a55dc)
  )

  (wire (pts (xy 156.21 102.87) (xy 163.83 102.87))
    (stroke (width 0) (type default) (color 0 0 0 0))
    (uuid 98e3080d-f5a6-4280-8409-264d404076cb)
  )
  (wire (pts (xy 135.89 67.31) (xy 135.89 80.01))
    (stroke (width 0) (type default) (color 0 0 0 0))
    (uuid 99421b02-be39-4cea-9461-7153cf9a12fa)
  )
  (wire (pts (xy 262.89 113.03) (xy 262.89 115.57))
    (stroke (width 0) (type default) (color 0 0 0 0))
    (uuid 9b7c8cff-be44-4cb4-9176-662195deac3c)
  )
  (wire (pts (xy 262.89 110.49) (xy 262.89 113.03))
    (stroke (width 0) (type default) (color 0 0 0 0))
    (uuid a1961070-d103-4712-94d3-94762b195500)
  )
  (bus (pts (xy 218.44 100.33) (xy 218.44 102.87))
    (stroke (width 0) (type default) (color 0 0 0 0))
    (uuid aa0d6c5b-6c10-4b2c-86bb-3894e0cf06f8)
  )

  (wire (pts (xy 256.54 107.95) (xy 262.89 107.95))
    (stroke (width 0) (type default) (color 0 0 0 0))
    (uuid aa2ef94a-2251-458c-b2c4-a17f380ed512)
  )
  (bus (pts (xy 218.44 97.79) (xy 218.44 100.33))
    (stroke (width 0) (type default) (color 0 0 0 0))
    (uuid aa8c01e5-5359-4e27-a4cc-d44147084c7d)
  )

  (wire (pts (xy 97.79 102.87) (xy 105.41 102.87))
    (stroke (width 0) (type default) (color 0 0 0 0))
    (uuid ab3918c7-716a-41ba-942d-99d5fbef4990)
  )
  (bus (pts (xy 166.37 115.57) (xy 166.37 133.35))
    (stroke (width 0) (type default) (color 0 0 0 0))
    (uuid ace53f96-e37a-4334-8553-87dad0de1917)
  )

  (wire (pts (xy 256.54 120.65) (xy 262.89 120.65))
    (stroke (width 0) (type default) (color 0 0 0 0))
    (uuid ae6b3eac-e08a-4d45-a601-48ec02a7b8ca)
  )
  (wire (pts (xy 123.19 80.01) (xy 123.19 60.96))
    (stroke (width 0) (type default) (color 0 0 0 0))
    (uuid b0c2ecc3-7bbd-4c14-a276-893434de409f)
  )
  (wire (pts (xy 143.51 130.81) (xy 143.51 135.89))
    (stroke (width 0) (type default) (color 0 0 0 0))
    (uuid b1e4af37-9ae4-40b6-9fb9-26142026b1d5)
  )
  (wire (pts (xy 97.79 95.25) (xy 105.41 95.25))
    (stroke (width 0) (type default) (color 0 0 0 0))
    (uuid b29f5972-2dd6-43f6-b0c0-c6c9f9fb2719)
  )
  (wire (pts (xy 156.21 115.57) (xy 163.83 115.57))
    (stroke (width 0) (type default) (color 0 0 0 0))
    (uuid b4c1cd0d-e51f-497d-9500-a35b504d7d1f)
  )
  (wire (pts (xy 130.81 80.01) (xy 130.81 49.53))
    (stroke (width 0) (type default) (color 0 0 0 0))
    (uuid b6bdcbc9-59f1-4060-9675-09c952f74756)
  )
  (wire (pts (xy 140.97 72.39) (xy 140.97 80.01))
    (stroke (width 0) (type default) (color 0 0 0 0))
    (uuid badacb0d-c665-48d1-a111-5eb71f74003a)
  )
  (wire (pts (xy 48.26 57.15) (xy 125.73 57.15))
    (stroke (width 0) (type default) (color 0 0 0 0))
    (uuid bb157ca9-6c67-4f2a-86e3-fef59b794f14)
  )
  (bus (pts (xy 166.37 97.79) (xy 166.37 95.25))
    (stroke (width 0) (type default) (color 0 0 0 0))
    (uuid bf306a5b-c425-4dee-90f6-3e1ef12fd4ea)
  )

  (wire (pts (xy 262.89 120.65) (xy 262.89 125.73))
    (stroke (width 0) (type default) (color 0 0 0 0))
    (uuid c6820e1b-bc00-42ab-83b2-3a4f3c109fb0)
  )
  (wire (pts (xy 220.98 110.49) (xy 231.14 110.49))
    (stroke (width 0) (type default) (color 0 0 0 0))
    (uuid c70ef76d-6193-4360-8b3b-f42b43dd2466)
  )
  (wire (pts (xy 143.51 135.89) (xy 163.83 135.89))
    (stroke (width 0) (type default) (color 0 0 0 0))
    (uuid c809201b-7e40-4b48-b622-b0469e94479e)
  )
  (bus (pts (xy 166.37 60.96) (xy 218.44 60.96))
    (stroke (width 0) (type default) (color 0 0 0 0))
    (uuid cc225e64-46bd-445e-8684-9abf85e936c9)
  )

  (wire (pts (xy 256.54 92.71) (xy 262.89 92.71))
    (stroke (width 0) (type default) (color 0 0 0 0))
    (uuid cc9e38f4-a117-48ba-9ff5-42073a97a574)
  )
  (wire (pts (xy 138.43 69.85) (xy 163.83 69.85))
    (stroke (width 0) (type default) (color 0 0 0 0))
    (uuid ce637843-14ea-4b34-9dce-13d73d5891b6)
  )
  (wire (pts (xy 140.97 72.39) (xy 163.83 72.39))
    (stroke (width 0) (type default) (color 0 0 0 0))
    (uuid cebcf5b6-110f-4f48-994c-8d9b94cdcb45)
  )
  (bus (pts (xy 166.37 110.49) (xy 166.37 107.95))
    (stroke (width 0) (type default) (color 0 0 0 0))
    (uuid cf1ffc98-c53b-41f4-a4b9-db640206bb8a)
  )
  (bus (pts (xy 48.26 64.77) (xy 95.25 64.77))
    (stroke (width 0) (type default) (color 0 0 0 0))
    (uuid d029a8db-5b76-4e0e-aaa9-da76ecf8a675)
  )

  (wire (pts (xy 256.54 110.49) (xy 262.89 110.49))
    (stroke (width 0) (type default) (color 0 0 0 0))
    (uuid d0e575fc-5165-479f-a6ef-a22bb4662dde)
  )
  (wire (pts (xy 220.98 115.57) (xy 231.14 115.57))
    (stroke (width 0) (type default) (color 0 0 0 0))
    (uuid d23c1cd8-7909-47b1-a564-af23bfaab8e1)
  )
  (wire (pts (xy 156.21 118.11) (xy 163.83 118.11))
    (stroke (width 0) (type default) (color 0 0 0 0))
    (uuid d2584a0c-6540-4dcb-92d8-3b929a3f04ac)
  )
  (wire (pts (xy 125.73 139.7) (xy 125.73 130.81))
    (stroke (width 0) (type default) (color 0 0 0 0))
    (uuid d4e5b7c9-0b8d-4c57-8058-81bc71add9db)
  )
  (wire (pts (xy 97.79 97.79) (xy 105.41 97.79))
    (stroke (width 0) (type default) (color 0 0 0 0))
    (uuid d560e72d-955b-47fb-96b0-f8ec887e5995)
  )
  (wire (pts (xy 262.89 92.71) (xy 262.89 95.25))
    (stroke (width 0) (type default) (color 0 0 0 0))
    (uuid d57ff5e1-359e-47ee-a272-91cc6b7723a8)
  )
  (bus (pts (xy 166.37 107.95) (xy 166.37 105.41))
    (stroke (width 0) (type default) (color 0 0 0 0))
    (uuid d87d8b12-2a3e-489a-b46a-5c3e73a02f4d)
  )

  (wire (pts (xy 125.73 139.7) (xy 163.83 139.7))
    (stroke (width 0) (type default) (color 0 0 0 0))
    (uuid d8b8b45e-0b98-4191-8468-b74491a25ebd)
  )
  (wire (pts (xy 262.89 115.57) (xy 262.89 118.11))
    (stroke (width 0) (type default) (color 0 0 0 0))
    (uuid d8d7d619-9690-42da-b0bc-d4a2f419b233)
  )
  (wire (pts (xy 256.54 100.33) (xy 262.89 100.33))
    (stroke (width 0) (type default) (color 0 0 0 0))
    (uuid d8dfe2c1-440b-4fdb-8f1d-e12bb86c696a)
  )
  (wire (pts (xy 262.89 85.09) (xy 262.89 87.63))
    (stroke (width 0) (type default) (color 0 0 0 0))
    (uuid d8fbba01-aa70-4c49-af11-719b3ad179ba)
  )
  (bus (pts (xy 166.37 105.41) (xy 166.37 100.33))
    (stroke (width 0) (type default) (color 0 0 0 0))
    (uuid d91642d0-42c4-4861-a81f-3a6fa701db0b)
  )

  (wire (pts (xy 220.98 97.79) (xy 231.14 97.79))
    (stroke (width 0) (type default) (color 0 0 0 0))
    (uuid d9dab00f-ce87-4109-a224-60e7921b2a9c)
  )
  (wire (pts (xy 97.79 105.41) (xy 105.41 105.41))
    (stroke (width 0) (type default) (color 0 0 0 0))
    (uuid dd1e4ca7-9776-4696-89e8-2c99f0ac94a4)
  )
  (wire (pts (xy 156.21 113.03) (xy 163.83 113.03))
    (stroke (width 0) (type default) (color 0 0 0 0))
    (uuid e23a70de-0f9f-4a80-878e-7f14382a13fa)
  )
  (wire (pts (xy 256.54 90.17) (xy 262.89 90.17))
    (stroke (width 0) (type default) (color 0 0 0 0))
    (uuid e2aef1a0-914f-407b-b330-4549bf13ae9f)
  )
  (bus (pts (xy 166.37 64.77) (xy 166.37 60.96))
    (stroke (width 0) (type default) (color 0 0 0 0))
    (uuid e2fb88b2-efb7-4167-9d2c-98e9e4395229)
  )

  (wire (pts (xy 156.21 107.95) (xy 163.83 107.95))
    (stroke (width 0) (type default) (color 0 0 0 0))
    (uuid e342d73a-3ec1-4cc7-a934-2566023184fa)
  )
  (wire (pts (xy 262.89 105.41) (xy 262.89 107.95))
    (stroke (width 0) (type default) (color 0 0 0 0))
    (uuid e34eae7e-b72a-409b-a82f-e69406892466)
  )
  (wire (pts (xy 256.54 95.25) (xy 262.89 95.25))
    (stroke (width 0) (type default) (color 0 0 0 0))
    (uuid e3ca136d-72eb-4129-8152-c41a7c3df223)
  )
  (wire (pts (xy 262.89 102.87) (xy 262.89 105.41))
    (stroke (width 0) (type default) (color 0 0 0 0))
    (uuid e62da30d-6078-407e-9866-67da250df421)
  )
  (wire (pts (xy 156.21 97.79) (xy 163.83 97.79))
    (stroke (width 0) (type default) (color 0 0 0 0))
    (uuid e78eb6da-cff9-45f8-ab8d-f630ad78c685)
  )
  (wire (pts (xy 256.54 87.63) (xy 262.89 87.63))
    (stroke (width 0) (type default) (color 0 0 0 0))
    (uuid e9502f95-62a8-4bb5-b20c-d6a9d3d82c30)
  )
  (wire (pts (xy 220.98 90.17) (xy 231.14 90.17))
    (stroke (width 0) (type default) (color 0 0 0 0))
    (uuid ec2ef55d-2461-4205-9a7a-859bb545c740)
  )
  (bus (pts (xy 95.25 105.41) (xy 95.25 102.87))
    (stroke (width 0) (type default) (color 0 0 0 0))
    (uuid ed8f33a0-00a9-4369-a32c-7390dc321e83)
  )
  (bus (pts (xy 218.44 105.41) (xy 218.44 107.95))
    (stroke (width 0) (type default) (color 0 0 0 0))
    (uuid edb654f2-2308-47d0-ae9a-b9d44368c8f0)
  )

  (wire (pts (xy 256.54 115.57) (xy 262.89 115.57))
    (stroke (width 0) (type default) (color 0 0 0 0))
    (uuid f5116495-fdba-4fce-928f-44e9a9377b42)
  )
  (bus (pts (xy 166.37 133.35) (xy 166.37 137.16))
    (stroke (width 0) (type default) (color 0 0 0 0))
    (uuid f8adbe02-51e9-471f-8f1a-c69cc0ffeb93)
  )
  (bus (pts (xy 166.37 115.57) (xy 166.37 113.03))
    (stroke (width 0) (type default) (color 0 0 0 0))
    (uuid f9186a6f-6d84-4e07-b68d-228b8931bd2a)
  )

  (wire (pts (xy 48.26 53.34) (xy 128.27 53.34))
    (stroke (width 0) (type default) (color 0 0 0 0))
    (uuid fd9b51fc-92d7-4903-a22c-84468e753d25)
  )
  (wire (pts (xy 220.98 125.73) (xy 231.14 125.73))
    (stroke (width 0) (type default) (color 0 0 0 0))
    (uuid ff0e9c06-6c4e-4a44-bc19-148b9e73d0ef)
  )
  (wire (pts (xy 156.21 110.49) (xy 163.83 110.49))
    (stroke (width 0) (type default) (color 0 0 0 0))
    (uuid ff8b1c95-a771-4f3b-9d3e-e92f114ee268)
  )

  (text "~{DCHG} is optional\n" (at 144.78 78.74 0)
    (effects (font (size 1.27 1.27)) (justify left bottom))
    (uuid 731c01da-6bcf-4cb1-aaa6-844bdea90e0d)
  )

  (label "~{TRK0}" (at 220.98 95.25 0)
    (effects (font (size 1.27 1.27)) (justify left bottom))
    (uuid 01b3e1be-814a-489e-b204-80c579b65149)
  )
  (label "~{MOTEB}" (at 157.48 97.79 0)
    (effects (font (size 1.27 1.27)) (justify left bottom))
    (uuid 06742f50-ef4f-4a0f-b4ab-0963ac9d72b0)
  )
  (label "D5" (at 97.79 105.41 0)
    (effects (font (size 1.27 1.27)) (justify left bottom))
    (uuid 0cf57328-59ff-4f2b-a72b-8e6e98e44bec)
  )
  (label "~{STEP}" (at 157.48 110.49 0)
    (effects (font (size 1.27 1.27)) (justify left bottom))
    (uuid 14a306ba-dcfd-42e7-a46b-c19a150b9cef)
  )
  (label "D7" (at 97.79 110.49 0)
    (effects (font (size 1.27 1.27)) (justify left bottom))
    (uuid 15ed55bd-0ad7-475c-a367-3b479a089b55)
  )
  (label "~{REDWC}" (at 157.48 92.71 0)
    (effects (font (size 1.27 1.27)) (justify left bottom))
    (uuid 1b4b7fb8-bfc4-4be4-9e18-fed17c39646a)
  )
  (label "~{DRVSA}" (at 220.98 110.49 0)
    (effects (font (size 1.27 1.27)) (justify left bottom))
    (uuid 1d38db2e-e9b1-469c-88d3-b4ea5590146a)
  )
  (label "D2" (at 97.79 97.79 0)
    (effects (font (size 1.27 1.27)) (justify left bottom))
    (uuid 3bd1ca34-bd6b-4cf2-9b66-ab62f6fb9bee)
  )
  (label "D1" (at 97.79 95.25 0)
    (effects (font (size 1.27 1.27)) (justify left bottom))
    (uuid 3c9f2e0a-a119-45f7-991c-f5daeb32327e)
  )
  (label "~{WDATA}" (at 220.98 100.33 0)
    (effects (font (size 1.27 1.27)) (justify left bottom))
    (uuid 46c65c23-3c4d-487d-9299-d896ef1d83b3)
  )
  (label "~{STEP}" (at 220.98 102.87 0)
    (effects (font (size 1.27 1.27)) (justify left bottom))
    (uuid 4e3cd515-39df-446a-846c-da521511bcc4)
  )
  (label "~{REDWC}" (at 220.98 125.73 0)
    (effects (font (size 1.27 1.27)) (justify left bottom))
    (uuid 5c9c8158-a3fc-4688-a7cd-95e3450d1b8e)
  )
  (label "D3" (at 97.79 100.33 0)
    (effects (font (size 1.27 1.27)) (justify left bottom))
    (uuid 5fb63735-e1bc-4c05-abcd-72eb4307b2bf)
  )
  (label "~{WPT}" (at 220.98 92.71 0)
    (effects (font (size 1.27 1.27)) (justify left bottom))
    (uuid 6556e1b9-d712-4e5f-a17e-53e955f66002)
  )
  (label "~{SIDE}" (at 220.98 87.63 0)
    (effects (font (size 1.27 1.27)) (justify left bottom))
    (uuid 72b219c5-b81d-4465-99a9-6f3517353bd9)
  )
  (label "~{DRVSA}" (at 157.48 107.95 0)
    (effects (font (size 1.27 1.27)) (justify left bottom))
    (uuid 790b2f07-2f74-40e2-a783-514ffb39b19c)
  )
  (label "D6" (at 97.79 107.95 0)
    (effects (font (size 1.27 1.27)) (justify left bottom))
    (uuid 92a2e54f-d89f-4e4a-b2f8-51f9aacf0b9c)
  )
  (label "~{RDATA}" (at 157.48 139.7 0)
    (effects (font (size 1.27 1.27)) (justify left bottom))
    (uuid 99b314cb-eacf-4ce4-a1c9-b85ec8d453f7)
  )
  (label "~{DIR}" (at 220.98 105.41 0)
    (effects (font (size 1.27 1.27)) (justify left bottom))
    (uuid 9a6a8d49-77d3-4564-8fa0-330be71bfe35)
  )
  (label "~{SIDE}" (at 157.48 135.89 0)
    (effects (font (size 1.27 1.27)) (justify left bottom))
    (uuid a0903151-c18c-4d98-8bba-40e9531ecb5a)
  )
  (label "D0" (at 97.79 92.71 0)
    (effects (font (size 1.27 1.27)) (justify left bottom))
    (uuid a448d387-81ce-485e-bb72-bf093060f41a)
  )
  (label "~{MOTEA}" (at 220.98 115.57 0)
    (effects (font (size 1.27 1.27)) (justify left bottom))
    (uuid a675f56a-0dd3-44b4-a8b6-4fbdb3efa1d4)
  )
  (label "~{WPT}" (at 157.48 72.39 0)
    (effects (font (size 1.27 1.27)) (justify left bottom))
    (uuid a6bde777-f3f6-487d-b8b5-f06193deedfb)
  )
  (label "~{DIR}" (at 157.48 113.03 0)
    (effects (font (size 1.27 1.27)) (justify left bottom))
    (uuid aa48e8e1-cf3e-4da9-8136-0da67bea650a)
  )
  (label "~{MOTEB}" (at 220.98 107.95 0)
    (effects (font (size 1.27 1.27)) (justify left bottom))
    (uuid b031a1fd-4e0d-49d9-bd08-7c0aa552072e)
  )
  (label "~{MOTEA}" (at 157.48 100.33 0)
    (effects (font (size 1.27 1.27)) (justify left bottom))
    (uuid b8ae5ece-5bf1-445f-88de-980a5ce477b2)
  )
  (label "~{RDATA}" (at 220.98 90.17 0)
    (effects (font (size 1.27 1.27)) (justify left bottom))
    (uuid be2b30a0-84fe-45b1-bf32-851f89561ae3)
  )
  (label "~{TRK0}" (at 157.48 69.85 0)
    (effects (font (size 1.27 1.27)) (justify left bottom))
    (uuid be8b29c9-c534-4d56-b4a2-f817150a0417)
  )
  (label "~{WGATE}" (at 157.48 118.11 0)
    (effects (font (size 1.27 1.27)) (justify left bottom))
    (uuid c8d632b0-d91f-4ee7-bd69-2b808776d928)
  )
  (label "~{WGATE}" (at 220.98 97.79 0)
    (effects (font (size 1.27 1.27)) (justify left bottom))
    (uuid cc6e3acb-c2e6-4a70-8d0f-fbec5ad583c0)
  )
  (label "D4" (at 97.79 102.87 0)
    (effects (font (size 1.27 1.27)) (justify left bottom))
    (uuid cd8b5111-2314-4ba6-a3c2-ceb130165051)
  )
  (label "~{INDEX}" (at 220.98 118.11 0)
    (effects (font (size 1.27 1.27)) (justify left bottom))
    (uuid d0014370-15aa-48ac-95f2-a10f002b3520)
  )
  (label "~{DRVSB}" (at 157.48 102.87 0)
    (effects (font (size 1.27 1.27)) (justify left bottom))
    (uuid e4ab7c85-87a9-44fe-ba64-4ad38d3f0877)
  )
  (label "~{WDATA}" (at 157.48 115.57 0)
    (effects (font (size 1.27 1.27)) (justify left bottom))
    (uuid ef01dff0-01bb-4328-8538-d439cdf0c8dc)
  )
  (label "~{INDEX}" (at 157.48 67.31 0)
    (effects (font (size 1.27 1.27)) (justify left bottom))
    (uuid f621c2e1-90f4-45a8-a4c9-661ec7256688)
  )
  (label "~{DRVSB}" (at 220.98 113.03 0)
    (effects (font (size 1.27 1.27)) (justify left bottom))
    (uuid ffc7d97f-038f-42e0-a3ff-151c16b8252a)
  )

  (global_label "WR" (shape input) (at 48.26 53.34 180) (fields_autoplaced)
    (effects (font (size 1.27 1.27)) (justify right))
    (uuid 54939bfb-7498-4c22-bb77-07227ae5571b)
    (property "Intersheet References" "${INTERSHEET_REFS}" (id 0) (at 43.1255 53.2606 0)
      (effects (font (size 1.27 1.27)) (justify right) hide)
    )
  )
  (global_label "A0" (shape input) (at 48.26 60.96 180) (fields_autoplaced)
    (effects (font (size 1.27 1.27)) (justify right))
    (uuid 55522b03-529c-4937-ba3d-b7adcc8c201d)
    (property "Intersheet References" "${INTERSHEET_REFS}" (id 0) (at 43.5488 60.8806 0)
      (effects (font (size 1.27 1.27)) (justify right) hide)
    )
  )
  (global_label "FD ENABLE" (shape input) (at 48.26 57.15 180) (fields_autoplaced)
    (effects (font (size 1.27 1.27)) (justify right))
    (uuid 74b91aec-beda-4c94-8b2e-2ae90bd86bab)
    (property "Intersheet References" "${INTERSHEET_REFS}" (id 0) (at 35.5055 57.0706 0)
      (effects (font (size 1.27 1.27)) (justify right) hide)
    )
  )
  (global_label "DATA BUS" (shape input) (at 48.26 64.77 180) (fields_autoplaced)
    (effects (font (size 1.27 1.27)) (justify right))
    (uuid 7eaaecc5-acc0-4577-a2d8-af479ad2a60a)
    (property "Intersheet References" "${INTERSHEET_REFS}" (id 0) (at 36.6545 64.6906 0)
      (effects (font (size 1.27 1.27)) (justify right) hide)
    )
  )
  (global_label "RD" (shape input) (at 48.26 49.53 180) (fields_autoplaced)
    (effects (font (size 1.27 1.27)) (justify right))
    (uuid 9e925645-c074-4c87-99aa-9524dbb4650f)
    (property "Intersheet References" "${INTERSHEET_REFS}" (id 0) (at 43.3069 49.4506 0)
      (effects (font (size 1.27 1.27)) (justify right) hide)
    )
  )

  (symbol (lib_id "Interface:WD37C65-PLCC") (at 130.81 105.41 0) (unit 1)
    (in_bom yes) (on_board yes) (fields_autoplaced)
    (uuid 6574f18f-fe4d-45f9-9953-06ff5d7f9204)
    (property "Reference" "U1" (id 0) (at 160.02 86.1312 0))
    (property "Value" "" (id 1) (at 160.02 88.6712 0))
    (property "Footprint" "" (id 2) (at 130.81 90.17 0)
      (effects (font (size 1.27 1.27)) hide)
    )
    (property "Datasheet" "" (id 3) (at 128.27 82.55 0)
      (effects (font (size 1.27 1.27)) hide)
    )
    (pin "1" (uuid 8b76029b-478c-4606-8b3d-5abbb09d39fd))
    (pin "10" (uuid d5fe1a9d-7ab9-4575-9ce1-051e5768e064))
    (pin "11" (uuid ec71c1c3-10b9-405c-8f6f-cd11cc48bae7))
    (pin "12" (uuid 6c295c4f-0435-4cbc-a361-4adab9b6de0a))
    (pin "13" (uuid 178418dd-d82d-4fc7-8093-ff0a0b98e828))
    (pin "14" (uuid 008a1c6e-8141-47c0-9ea5-7dc294dbf6e3))
    (pin "15" (uuid b1bfcbfb-f10e-4920-9b8d-5188ed52f714))
    (pin "16" (uuid da9bbe98-3b9c-40d6-9955-fff5732ae5c0))
    (pin "17" (uuid c595ef17-ea0f-4148-a802-76516654bbf7))
    (pin "18" (uuid fd277907-322c-43e6-b0cb-aa9fd0c82ad3))
    (pin "19" (uuid 85eafb60-22fa-40b1-9140-00865d0df9de))
    (pin "2" (uuid 9a72c30d-37ac-465a-b5b3-01951cf413f6))
    (pin "20" (uuid 15bd7617-5ad7-4fbd-850e-68453ec63fbd))
    (pin "21" (uuid e2775748-7dd8-4d78-9a60-bb299b4bda3a))
    (pin "22" (uuid 61434495-fa0c-401a-b071-bbfc7cd70e5c))
    (pin "23" (uuid 5baca4d6-e527-44cc-9719-c3f5e3e4b4c7))
    (pin "24" (uuid 6227e88b-46d5-490d-a102-9e7578c0bca3))
    (pin "25" (uuid cb6db57e-a977-46dc-a903-0492472ec5fa))
    (pin "26" (uuid 966c66e1-7c35-443b-89ea-0969c53ac6f9))
    (pin "27" (uuid 5dfe4f89-c1b9-4620-8cc9-b7325ffa5f49))
    (pin "28" (uuid 8442f31e-6064-4e46-ad29-a14015bfc7f7))
    (pin "29" (uuid 4e9254cc-06d6-45c5-bf4a-d597eaea78bc))
    (pin "3" (uuid b23b277b-d169-4495-b0aa-b5feafeb8537))
    (pin "30" (uuid b58e9e9a-33f0-4171-ad16-e8df70765e9d))
    (pin "31" (uuid 7ccc278d-8bc7-4c52-9ebb-5110a9fc9d58))
    (pin "32" (uuid 5198ee97-76c6-4535-a866-b32135226e6b))
    (pin "33" (uuid a9631aa1-af98-41fa-8d05-5a232f2c0664))
    (pin "34" (uuid 5a21633b-d4e4-4f6b-96b6-a18d5861bb9d))
    (pin "35" (uuid 0f941772-0eab-4dcb-af5d-52464dfdb0f7))
    (pin "36" (uuid c1a8ca15-7e14-44df-bdd6-04acec56dea9))
    (pin "37" (uuid 4eb0714b-47a7-4229-ad43-5b08e346e540))
    (pin "38" (uuid 01099657-272a-4201-8dac-1782ad6b4245))
    (pin "39" (uuid 514503a8-b441-44d2-b1a2-b0d87303405b))
    (pin "4" (uuid ec554ffa-b6b0-47e9-8357-a5eca5d195c8))
    (pin "40" (uuid f51cf43a-5b91-4ccd-8e3d-011d983f7077))
    (pin "41" (uuid c40f4415-a1de-4da9-835c-217f5b765480))
    (pin "42" (uuid 1ccb5d5e-d91a-4184-84a2-6a6d68157403))
    (pin "43" (uuid d196f270-d219-40a6-828a-c59ee922f1c5))
    (pin "44" (uuid 272e717a-9cab-4183-a18b-0ccaeb0f2ae6))
    (pin "5" (uuid 935f960b-79c2-4afe-981f-6c6f446dd538))
    (pin "6" (uuid 3704a755-c193-4d67-985e-04e3bec72d15))
    (pin "7" (uuid 6f77ae14-ab38-4861-a8fe-ab20f67f0429))
    (pin "8" (uuid 1f654ae6-4ea1-4108-98dc-e8481d1f9a20))
    (pin "9" (uuid 65c6bb64-801a-443e-8f61-0028c0740a0e))
  )

  (symbol (lib_id "Interface:FLOPPY_DRIVE") (at 243.84 105.41 180) (unit 1)
    (in_bom yes) (on_board yes) (fields_autoplaced)
    (uuid 7b64e536-aaf3-459e-962d-82acbffbcb51)
    (property "Reference" "J?" (id 0) (at 243.84 77.47 0))
    (property "Value" "" (id 1) (at 243.84 80.01 0))
    (property "Footprint" "" (id 2) (at 248.92 105.41 0)
      (effects (font (size 1.27 1.27)) hide)
    )
    (property "Datasheet" "~" (id 3) (at 248.92 105.41 0)
      (effects (font (size 1.27 1.27)) hide)
    )
    (pin "1" (uuid 94b835ad-7ea6-489f-8063-70ff4043d461))
    (pin "10" (uuid c3c03dfe-fce3-429c-a290-3c018029e4e8))
    (pin "11" (uuid 1b99c385-576a-4804-82d9-283e0030b231))
    (pin "12" (uuid 7d0ab23b-00c8-418a-bca5-fb9e9cb48aa7))
    (pin "13" (uuid 9d2fca2a-2fd6-4d9c-8713-876ba41a6747))
    (pin "14" (uuid d30fd93b-e1e2-46dd-8db1-d453c6abed18))
    (pin "15" (uuid db533796-79fe-4ba5-a349-7a19c6291aff))
    (pin "16" (uuid dfa9d389-dd3c-46e8-a4f2-4cc8e7ff1d25))
    (pin "17" (uuid 7deb44aa-70b3-4640-9d24-90606b558edf))
    (pin "18" (uuid e8744330-b9d3-4f6b-8806-0765208ef023))
    (pin "19" (uuid 2039b9ba-7185-4f01-bb0c-63523b99868c))
    (pin "2" (uuid f854ca6c-9a5c-4ff4-a0d3-42ba9afb60b9))
    (pin "20" (uuid 5f0454d6-985c-4d6c-8676-b3d0cc2ff28e))
    (pin "21" (uuid 261f349a-568d-4789-b1d1-9230c8d6dfc7))
    (pin "22" (uuid 8a5c3e47-9e2e-4945-add2-8b2f80244d9a))
    (pin "23" (uuid 513e9f7a-e26d-4ac8-9ac3-40ab1f214aba))
    (pin "24" (uuid 32d0ccf7-cbbc-4aed-a633-735b42d21505))
    (pin "25" (uuid ffb79759-50d4-4092-a342-8f0342382bcd))
    (pin "26" (uuid 7c5d3e16-3705-4a2d-94ce-9ba0824f2641))
    (pin "27" (uuid 56f0b9aa-14c4-4ab6-af44-8a96b3fac010))
    (pin "28" (uuid e3d4eafc-7c94-4a8c-bf9e-fc836c0dbef6))
    (pin "29" (uuid 264690ce-0036-4110-9d67-b45bf96e9142))
    (pin "30" (uuid 902b8e2d-0a71-4628-b356-8c97c25da009))
    (pin "31" (uuid 387f385e-5ade-45f5-8325-36cd2ba7447c))
    (pin "32" (uuid 75978432-0fd5-4ebd-9f86-5d9bf2ce88fe))
    (pin "33" (uuid 34a8ba49-f452-40cb-9c36-8b81ed178055))
    (pin "34" (uuid 5734483b-29cb-4e25-a0d3-7f5f8d256f7d))
    (pin "4" (uuid ca99b1c8-e81a-48df-9c37-b61b0015894c))
    (pin "5" (uuid fc9c2feb-6a3e-4db5-be93-0fa9065606b9))
    (pin "6" (uuid 7a01aa16-bccf-4ec3-8cf7-4db91acf5dc1))
    (pin "7" (uuid 374283f6-24a5-469e-96b2-ba20beb2fa8b))
    (pin "8" (uuid 7d77937d-1f37-45cd-9327-4294ba29ea6c))
    (pin "9" (uuid 63175f0d-d877-4439-a87e-205596587db3))
  )

  (symbol (lib_id "power:VCC") (at 133.35 46.99 0) (unit 1)
    (in_bom yes) (on_board yes) (fields_autoplaced)
    (uuid c0396b0a-05c7-42a8-8c65-d6257fa640f4)
    (property "Reference" "#PWR?" (id 0) (at 133.35 50.8 0)
      (effects (font (size 1.27 1.27)) hide)
    )
    (property "Value" "" (id 1) (at 133.35 41.91 0))
    (property "Footprint" "" (id 2) (at 133.35 46.99 0)
      (effects (font (size 1.27 1.27)) hide)
    )
    (property "Datasheet" "" (id 3) (at 133.35 46.99 0)
      (effects (font (size 1.27 1.27)) hide)
    )
    (pin "1" (uuid 157bd013-c3da-4283-80bc-c557d1f6ec44))
  )

  (symbol (lib_id "power:GND") (at 262.89 132.08 0) (unit 1)
    (in_bom yes) (on_board yes) (fields_autoplaced)
    (uuid e996d985-15ba-4d8a-a460-8eb33ad0e625)
    (property "Reference" "#PWR?" (id 0) (at 262.89 138.43 0)
      (effects (font (size 1.27 1.27)) hide)
    )
    (property "Value" "" (id 1) (at 262.89 137.16 0))
    (property "Footprint" "" (id 2) (at 262.89 132.08 0)
      (effects (font (size 1.27 1.27)) hide)
    )
    (property "Datasheet" "" (id 3) (at 262.89 132.08 0)
      (effects (font (size 1.27 1.27)) hide)
    )
    (pin "1" (uuid 74aefb1b-384f-436f-9f69-a476672510dd))
  )

  (sheet_instances
    (path "/" (page "1"))
  )

  (symbol_instances
    (path "/c0396b0a-05c7-42a8-8c65-d6257fa640f4"
      (reference "#PWR?") (unit 1) (value "VCC") (footprint "")
    )
    (path "/e996d985-15ba-4d8a-a460-8eb33ad0e625"
      (reference "#PWR?") (unit 1) (value "GND") (footprint "")
    )
    (path "/7b64e536-aaf3-459e-962d-82acbffbcb51"
      (reference "J?") (unit 1) (value "FLOPPY_DRIVE") (footprint "")
    )
    (path "/6574f18f-fe4d-45f9-9953-06ff5d7f9204"
      (reference "U1") (unit 1) (value "WD37C65-PLCC") (footprint "Package_LCC:PLCC-44_THT-Socket")
    )
  )
)
